<?xml version="1.0" encoding="utf-8"?>
<!-- Generator: Adobe Illustrator 17.1.0, SVG Export Plug-In . SVG Version: 6.00 Build 0)  -->
<!DOCTYPE svg PUBLIC "-//W3C//DTD SVG 1.1//EN" "http://www.w3.org/Graphics/SVG/1.1/DTD/svg11.dtd">
<svg version="1.1" id="Layer_1" xmlns="http://www.w3.org/2000/svg" xmlns:xlink="http://www.w3.org/1999/xlink" x="0px" y="0px"
	 width="426px" height="125px" viewBox="0 0 426 125" enable-background="new 0 0 426 125" xml:space="preserve">
<g>
	<path fill="#505050" d="M314.1,75.9c-2.1,0.2-2.5,0-2.5,0c-8.6,0-10.9-7.8-10.9-15c0-6.5,3.5-12.9,10.9-12.9c7.4,0,11,6.2,11,12.9
		c0,3.6,0.7,10.1-8.4,12.3c12.8-1,19.7-15.7,18.4-20.7c-3.4-8.5-11.4-13.3-21-13.3c-12.8,0-22.7,8.7-22.7,23
		c0,12.5,8.4,22.4,22.7,22.4c14.4,0,22.8-10,22.8-22.4c0-1-0.1-2-0.2-2.9C327.3,74.8,317.8,75.7,314.1,75.9z"/>
	
		<linearGradient id="SVGID_1_" gradientUnits="userSpaceOnUse" x1="1.1613" y1="30.9031" x2="332.9424" y2="30.9031" gradientTransform="matrix(1 0 0 -1 0 126)">
		<stop  offset="0" style="stop-color:#EB2D2E"/>
		<stop  offset="0.2" style="stop-color:#FDE92B"/>
		<stop  offset="0.4" style="stop-color:#00A154"/>
		<stop  offset="0.6" style="stop-color:#00A7DF"/>
		<stop  offset="0.8" style="stop-color:#343290"/>
		<stop  offset="1" style="stop-color:#EA0E88"/>
	</linearGradient>
	<path fill="url(#SVGID_1_)" d="M274,93.6c-25.1,4-45.9,3.8-70,0c-20.8-3.3-41.2-3.8-62.6-1.4v3.4c18.9-2.8,35.3-2.7,54.3,0.3
		c30.3,4.8,56.2,4.8,86.5,0c20.3-3.2,30.3-3.2,50.6,0l0.1-3.4C312.1,89.8,296.4,90.1,274,93.6z"/>
	
		<linearGradient id="SVGID_2_" gradientUnits="userSpaceOnUse" x1="1.1596" y1="29.2499" x2="332.9484" y2="29.2499" gradientTransform="matrix(1 0 0 -1 0 126)">
		<stop  offset="0" style="stop-color:#EB2D2E"/>
		<stop  offset="0.2" style="stop-color:#FDE92B"/>
		<stop  offset="0.4" style="stop-color:#00A154"/>
		<stop  offset="0.6" style="stop-color:#00A7DF"/>
		<stop  offset="0.8" style="stop-color:#343290"/>
		<stop  offset="1" style="stop-color:#EA0E88"/>
	</linearGradient>
	<path fill="url(#SVGID_2_)" d="M108,96.2c-0.7,1.1-1.6,2.1-2.5,3.1c7-0.3,14.1-0.8,21.4-1.7v-3.4C120.2,95.2,113.9,95.9,108,96.2z"
		/>
	
		<linearGradient id="SVGID_3_" gradientUnits="userSpaceOnUse" x1="8.887690e-02" y1="31.0893" x2="336.1411" y2="31.0893" gradientTransform="matrix(1 0 0 -1 0 126)">
		<stop  offset="0" style="stop-color:#EB2D2E"/>
		<stop  offset="0.2" style="stop-color:#FDE92B"/>
		<stop  offset="0.4" style="stop-color:#00A154"/>
		<stop  offset="0.6" style="stop-color:#00A7DF"/>
		<stop  offset="0.8" style="stop-color:#343290"/>
		<stop  offset="1" style="stop-color:#EA0E88"/>
	</linearGradient>
	<path fill="url(#SVGID_3_)" d="M0.1,92.7l0,3.5c21.1-3.4,34.6-3.4,54.6-0.3c10.3,1.6,20,2.7,29.4,3.2l0.3-3
		c-6.8-0.5-13.8-1.3-21.4-2.5C40.6,90.1,22,89.8,0.1,92.7z"/>
	<path fill="#505050" d="M292.6,39.8h-14V27.5l-11.3,3.6v39.1c0,8.6,4.9,14.1,13.8,14.1c3.4,0,6-0.3,8.4-1l-0.3-8.9
		c-1.2,0.8-3.1,1.2-5.1,1.2c-4.3,0-5.3-3.5-5.3-7.2V48h7.4C287.6,44.6,289.8,41.9,292.6,39.8z"/>
	<path d="M0,20h11.3v25.4h0.2c3.1-4.1,7.1-6.6,13-6.6c13.3,0,18.2,10.6,18.2,22.6c0,11.9-4.9,22.9-18.2,22.9
		c-4.8,0-10.1-1.7-13.3-6.3H11v5.3H0L0,20L0,20z M21.4,75.5c7.4,0,9.5-8.1,9.5-14.1c0-5.8-2-13.8-9.4-13.8
		c-7.3,0-10.1,7.8-10.1,13.8C11.4,67.5,13.9,75.5,21.4,75.5z"/>
	<path d="M49.3,42.1c4.4-2,10.3-3.3,15.1-3.3c13.3,0,18.8,5.5,18.8,18.3v5.6c0,4.4,0.1,7.7,0.2,10.9c0.1,3.3,0.3,6.3,0.5,9.7h-10
		c-0.4-2.3-0.4-5.1-0.5-6.5h-0.2c-2.6,4.8-8.3,7.5-13.4,7.5c-7.7,0-15.2-4.6-15.2-12.9c0-6.5,3.1-10.3,7.4-12.4
		c4.3-2.1,9.9-2.5,14.6-2.5h6.3c0-7-3.1-9.4-9.8-9.4c-4.8,0-9.6,1.9-13.4,4.7L49.3,42.1z M62.5,76c3.5,0,6.2-1.5,7.9-3.9
		c1.9-2.4,2.4-5.6,2.4-8.9H68c-5.1,0-12.6,0.8-12.6,7.5C55.4,74.4,58.5,76,62.5,76z"/>
	<path fill="#505050" d="M174.8,20h11.3v25.7h0.2c2.9-4.2,7.8-6.9,13.7-6.9c10.3,0,14.8,7.3,14.8,17v27.4h-11.3V60
		c0-5.3-0.1-12.5-7.3-12.5c-8.2,0-10,8.9-10,14.4v21.3h-11.3V20z"/>
	<path fill="#505050" d="M241,38.8c12.9,0,22.8,8.7,22.8,23c0,12.5-8.4,22.4-22.8,22.4c-14.4,0-22.7-10-22.7-22.4
		C218.2,47.5,228.1,38.8,241,38.8z M241,75.5c8.7,0,11-7.8,11-15c0-6.7-3.6-12.9-11-12.9c-7.4,0-10.9,6.4-10.9,12.9
		C230.1,67.6,232.3,75.5,241,75.5z"/>
	<path fill="#505050" d="M153.1,38.8c-6.7,0-11,3-13.5,7.2h-0.2v-6.2h-6.1l-4.7,12.4V101h11.3V78.3h0.2c4,4.8,7.9,6,12.8,6
		c13.6,0,18.5-11,18.5-22.9C171.4,49.4,166.5,38.8,153.1,38.8z M150,75.5c-7.5,0-10-7.9-10-14.1c0-6.1,2.9-13.8,10.1-13.8
		c7.3,0,9.4,8,9.4,13.8C159.5,67.4,157.4,75.5,150,75.5z"/>
	<path d="M106.1,71.5h0.2l10.5-31.7h11.5l-16.3,43.1c-3.6,9.6-6.3,19.1-18.1,19.1c-2.7,0-5.4-0.4-8-1.2l0.8-8.4
		c1.4,0.5,3,0.8,5.8,0.8c4.6,0,7.3-3.1,7.3-7.8L83.1,39.8h12.5L106.1,71.5z"/>
	<path fill="#8C8C8C" d="M338.8,96.2c-0.9,0-1.6-0.9-1.6-1.8c0-1.1,0.7-1.8,1.7-1.8c1,0,1.6,0.8,1.6,1.8
		C340.5,95.3,339.8,96.2,338.8,96.2L338.8,96.2z"/>
	<path fill="#8C8C8C" d="M359,94.9c-0.9,0.4-2.9,1.3-5.8,1.3c-5.7,0-9.4-4.1-9.4-10c0-6.3,4.3-10.5,10.1-10.5c2.4,0,4.4,0.7,5.2,1.2
		l-0.7,1.6c-0.9-0.6-2.5-1.1-4.6-1.1c-5.3,0-8,4-8,8.6c0,5.2,3.2,8.5,7.8,8.5c2.3,0,3.9-0.7,4.9-1.1L359,94.9z"/>
	<path fill="#8C8C8C" d="M371.1,96.2c-5.1,0-9-4-9-10.1c0-6.7,4.4-10.4,9.3-10.4c5.4,0,9.1,4.1,9.1,10.1
		C380.5,93,375.4,96.2,371.1,96.2L371.1,96.2z M371.2,94.5c4.1,0,7.3-3.7,7.3-8.7c0-3.6-2-8.6-7.2-8.6c-5,0-7.3,4.5-7.3,8.7
		C364,90.9,367.1,94.5,371.2,94.5L371.2,94.5L371.2,94.5z"/>
	<path fill="#8C8C8C" d="M385.5,80.8c0-1.8,0-3.2-0.2-4.7h1.8l0.1,3.4h0.1c1.3-2.3,3.2-3.9,6.4-3.9c2.7,0,4.8,1.8,5.7,4.3h0.1
		c0.5-1.1,1.3-2,2-2.7c1.3-1,2.6-1.6,4.7-1.6c1.9,0,6.4,1.1,6.4,8.5v11.6h-2V84.3c0-4.4-1.7-7-5.1-7c-2.5,0-4.4,1.8-5.2,3.9
		c-0.2,0.6-0.3,1.2-0.3,2v12.6h-2V83.4c0-3.5-1.7-6.1-4.9-6.1c-2.6,0-4.7,2.1-5.4,4.4c-0.2,0.6-0.3,1.2-0.3,1.9v12.1h-2L385.5,80.8
		L385.5,80.8z"/>
	
		<linearGradient id="SVGID_4_" gradientUnits="userSpaceOnUse" x1="363.8471" y1="94.0658" x2="426" y2="94.0658" gradientTransform="matrix(1 0 0 -1 0 126)">
		<stop  offset="0" style="stop-color:#00A154"/>
		<stop  offset="1" style="stop-color:#00A7DF"/>
	</linearGradient>
	<path fill="url(#SVGID_4_)" d="M426,39.6c-3-7.8-36-1.5-36-1.5s-22.6-23.6-26.1-19.6c9.9,4.6,14.2,19.2,23.9,27.4
		C399.3,43.9,414.1,37.4,426,39.6z"/>
	
		<linearGradient id="SVGID_5_" gradientUnits="userSpaceOnUse" x1="326.4375" y1="83.5436" x2="408.388" y2="83.5436" gradientTransform="matrix(1 0 0 -1 0 126)">
		<stop  offset="0" style="stop-color:#FDE92B"/>
		<stop  offset="1" style="stop-color:#00A154"/>
		<stop  offset="1" style="stop-color:#00A553"/>
		<stop  offset="1" style="stop-color:#00A7DF"/>
		<stop  offset="1" style="stop-color:#343290"/>
		<stop  offset="1" style="stop-color:#2A478D"/>
		<stop  offset="1" style="stop-color:#3D98CD"/>
		<stop  offset="1" style="stop-color:#EA0E88"/>
	</linearGradient>
	<path fill="url(#SVGID_5_)" d="M408.4,55.6c-3.7-11.1-48.6-4-48.6-4S331.5,17.7,326.4,23c12.8,6.8,17.4,27.3,29.8,39.5
		C372,60.3,392.4,51.9,408.4,55.6z"/>
</g>
</svg>
